Level 1 Data Cleaning: Clean the mtcars Dataset
…
clean.mtcars.csv 

# A tibble: 32 × 16
   model         mpg   cyl  disp    hp  drat    wt  qsec    vs    am  gear  carb
   <chr>       <dbl> <dbl> <dbl> <dbl> <dbl> <dbl> <dbl> <dbl> <dbl> <dbl> <dbl>
 1 Toyota Cor…  33.9     4  71.1    65  4.22  1.84  19.9     1     1     4     1
 2 Porsche 91…  26       4 120.     91  4.43  2.14  16.7     0     1     5     2
 3 Merc 240D    24.4     4 147.     62  3.69  3.19  20       1     0     4     2
 4 Lotus Euro…  30.4     4  95.1   113  3.77  1.51  16.9     1     1     5     2
 5 Honda Civic  30.4     4  75.7    52  4.93  1.62  18.5     1     1     4     2
 6 Fiat X1-9    27.3     4  79      66  4.08  1.94  18.9     1     1     4     1
 7 Fiat 128     32.4     4  78.7    66  4.08  2.2   19.5     1     1     4     1
 8 Maserati B…  15       8 301     335  3.54  3.57  14.6     0     1     5     8
 9 Lincoln Co…  10.4     8 460     215  3     5.42  17.8     0     0     3     4
10 Duster 360   14.3     8 360     245  3.21  3.57  15.8     0     0     3     4
# ℹ 22 more rows
# ℹ 4 more variables: mpg_category <chr>, wt_category <fct>, mpg_per_cyl <dbl>,
#   Manual <lgl>
…
